\relax 
\providecommand\hyper@newdestlabel[2]{}
\providecommand\HyperFirstAtBeginDocument{\AtBeginDocument}
\HyperFirstAtBeginDocument{\ifx\hyper@anchor\@undefined
\global\let\oldcontentsline\contentsline
\gdef\contentsline#1#2#3#4{\oldcontentsline{#1}{#2}{#3}}
\global\let\oldnewlabel\newlabel
\gdef\newlabel#1#2{\newlabelxx{#1}#2}
\gdef\newlabelxx#1#2#3#4#5#6{\oldnewlabel{#1}{{#2}{#3}}}
\AtEndDocument{\ifx\hyper@anchor\@undefined
\let\contentsline\oldcontentsline
\let\newlabel\oldnewlabel
\fi}
\fi}
\global\let\hyper@last\relax 
\gdef\HyperFirstAtBeginDocument#1{#1}
\providecommand\HyField@AuxAddToFields[1]{}
\providecommand\HyField@AuxAddToCoFields[2]{}
\citation{cho2015}
\citation{cho2015}
\citation{1541280}
\citation{1640948}
\citation{1640737}
\citation{6684535}
\citation{Deselaers2010}
\citation{NIPS2009_3680}
\citation{6909586}
\citation{cho2015}
\citation{1640859}
\citation{5540080}
\citation{Cho2008}
\citation{6909586}
\citation{5539868}
\citation{cho2015}
\citation{cho2015}
\citation{cho2015}
\citation{Manen_2013_ICCV}
\citation{cho2015}
\citation{cho2015}
\@writefile{toc}{\contentsline {section}{\numberline {1}\hskip -1em.\nobreakspace  {}Introduction}{1}{section.1}}
\@writefile{toc}{\contentsline {paragraph}{}{1}{section*.1}}
\@writefile{toc}{\contentsline {paragraph}{}{1}{section*.2}}
\@writefile{toc}{\contentsline {paragraph}{}{1}{section*.3}}
\@writefile{toc}{\contentsline {section}{\numberline {2}\hskip -1em.\nobreakspace  {}Approach}{1}{section.2}}
\@writefile{toc}{\contentsline {paragraph}{}{1}{section*.4}}
\@writefile{toc}{\contentsline {subsection}{\numberline {2.1}\hskip -1em.\nobreakspace  {}Part-based region matching}{1}{subsection.2.1}}
\newlabel{phm_sect}{{2.1}{1}{\hskip -1em.~Part-based region matching}{subsection.2.1}{}}
\@writefile{toc}{\contentsline {paragraph}{}{1}{figure.caption.6}}
\citation{1467360}
\citation{cho2015}
\citation{cho2015}
\citation{cho2015}
\providecommand*\caption@xref[2]{\@setref\relax\@undefined{#1}}
\newlabel{originalimg}{{1a}{2}{Original images.\relax }{figure.caption.6}{}}
\newlabel{sub@originalimg}{{a}{2}{Original images.\relax }{figure.caption.6}{}}
\newlabel{regionproposals}{{1b}{2}{Region proposals for the respective images to the left.\relax }{figure.caption.6}{}}
\newlabel{sub@regionproposals}{{b}{2}{Region proposals for the respective images to the left.\relax }{figure.caption.6}{}}
\newlabel{regionmatches}{{1c}{2}{Region matches between the two images.\relax }{figure.caption.6}{}}
\newlabel{sub@regionmatches}{{c}{2}{Region matches between the two images.\relax }{figure.caption.6}{}}
\@writefile{lof}{\contentsline {figure}{\numberline {1}{\ignorespaces Two images, their respective region proposals and region matches. From \cite  {cho2015}.\relax }}{2}{figure.caption.6}}
\newlabel{eq1}{{1}{2}{}{equation.2.1}{}}
\@writefile{toc}{\contentsline {paragraph}{}{2}{section*.7}}
\newlabel{eq2}{{2}{2}{}{equation.2.2}{}}
\newlabel{eq3}{{3}{2}{}{equation.2.3}{}}
\@writefile{toc}{\contentsline {paragraph}{}{2}{section*.8}}
\citation{cho2015}
\citation{rubinfigure}
\citation{jackson2008gestalt}
\citation{cho2015}
\citation{cho2015}
\citation{cho2015}
\citation{cho2015}
\citation{Manen_2013_ICCV}
\citation{4587633}
\citation{pascal-voc-2007}
\citation{pascal-voc-2012}
\citation{cho2015}
\citation{pascal-voc-2007}
\citation{cho2015}
\citation{cho2015}
\citation{cho2015}
\@writefile{toc}{\contentsline {subsection}{\numberline {2.2}\hskip -1em.\nobreakspace  {}Foreground Localization}{3}{subsection.2.2}}
\@writefile{toc}{\contentsline {subsection}{\numberline {2.3}\hskip -1em.\nobreakspace  {}Object discovery algorithm}{3}{subsection.2.3}}
\@writefile{loa}{\contentsline {algorithm}{\numberline {1}{\ignorespaces Object Discovery\cite  {cho2015}\relax }}{3}{algorithm.1}}
\newlabel{algo1}{{1}{3}{Object Discovery\cite {cho2015}\relax }{algorithm.1}{}}
\@writefile{toc}{\contentsline {section}{\numberline {3}\hskip -1em.\nobreakspace  {}Results and Discussion}{3}{section.3}}
\@writefile{toc}{\contentsline {subsection}{\numberline {3.1}\hskip -1em.\nobreakspace  {}Experimental Procedure}{3}{subsection.3.1}}
\@writefile{toc}{\contentsline {paragraph}{}{3}{section*.9}}
\@writefile{toc}{\contentsline {subsection}{\numberline {3.2}\hskip -1em.\nobreakspace  {}Quantitative Results}{3}{subsection.3.2}}
\@writefile{lot}{\contentsline {table}{\numberline {1}{\ignorespaces CorLoc scores on different datasets and implementations\relax }}{4}{table.caption.10}}
\newlabel{corLoc}{{1}{4}{CorLoc scores on different datasets and implementations\relax }{table.caption.10}{}}
\@writefile{toc}{\contentsline {paragraph}{}{4}{section*.11}}
\@writefile{toc}{\contentsline {paragraph}{}{4}{section*.13}}
\newlabel{quantitative}{{3.2}{4}{}{section*.13}{}}
\@writefile{toc}{\contentsline {subsection}{\numberline {3.3}\hskip -1em.\nobreakspace  {}Qualitative Results}{4}{subsection.3.3}}
\@writefile{toc}{\contentsline {paragraph}{}{4}{section*.15}}
\@writefile{toc}{\contentsline {paragraph}{}{4}{section*.17}}
\citation{cho2015}
\citation{Wang2014}
\citation{cho2015}
\newlabel{graph_me}{{2a}{5}{CorLoc score for our implementation.\relax }{figure.caption.12}{}}
\newlabel{sub@graph_me}{{a}{5}{CorLoc score for our implementation.\relax }{figure.caption.12}{}}
\newlabel{graph_author}{{2b}{5}{CorLoc score for the authors' implementation.\relax }{figure.caption.12}{}}
\newlabel{sub@graph_author}{{b}{5}{CorLoc score for the authors' implementation.\relax }{figure.caption.12}{}}
\@writefile{lof}{\contentsline {figure}{\numberline {2}{\ignorespaces A comparison of the CorLoc score as a function of the number of iterations between our implementation and the authors'.\relax }}{5}{figure.caption.12}}
\newlabel{graph_corloc}{{2}{5}{A comparison of the CorLoc score as a function of the number of iterations between our implementation and the authors'.\relax }{figure.caption.12}{}}
\newlabel{boat_059}{{3a}{5}{Original image.\relax }{figure.caption.14}{}}
\newlabel{sub@boat_059}{{a}{5}{Original image.\relax }{figure.caption.14}{}}
\newlabel{boat_059_first}{{3b}{5}{Region confidence, \nth {1} iter.\relax }{figure.caption.14}{}}
\newlabel{sub@boat_059_first}{{b}{5}{Region confidence, \nth {1} iter.\relax }{figure.caption.14}{}}
\newlabel{boat_059_second}{{3c}{5}{Region confidence, \nth {2} iter.\relax }{figure.caption.14}{}}
\newlabel{sub@boat_059_second}{{c}{5}{Region confidence, \nth {2} iter.\relax }{figure.caption.14}{}}
\newlabel{boat_059_third}{{3d}{5}{Region confidence, \nth {3} iter.\relax }{figure.caption.14}{}}
\newlabel{sub@boat_059_third}{{d}{5}{Region confidence, \nth {3} iter.\relax }{figure.caption.14}{}}
\@writefile{lof}{\contentsline {figure}{\numberline {3}{\ignorespaces Region confidences across iterations for our implementation. Only the first three iterations are shown here.\relax }}{5}{figure.caption.14}}
\@writefile{toc}{\contentsline {subsection}{\numberline {3.4}\hskip -1em.\nobreakspace  {}General observations}{5}{subsection.3.4}}
\@writefile{toc}{\contentsline {paragraph}{}{5}{section*.18}}
\@writefile{toc}{\contentsline {paragraph}{}{5}{section*.20}}
\@writefile{toc}{\contentsline {section}{\numberline {4}\hskip -1em.\nobreakspace  {}Conclusion}{5}{section.4}}
\@writefile{toc}{\contentsline {paragraph}{}{5}{section*.21}}
\citation{cho2015}
\citation{vedaldi08vlfeat}
\citation{progressbar}
\citation{pascal-voc-2007}
\citation{pascal-voc-2012}
\citation{Manen_2013_ICCV}
\citation{voc-release5}
\citation{lsvm-pami}
\bibstyle{ieee}
\bibdata{biblio}
\bibcite{5540080}{1}
\newlabel{our_qualitative_results}{{4a}{6}{Our results.\relax }{figure.caption.16}{}}
\newlabel{sub@our_qualitative_results}{{a}{6}{Our results.\relax }{figure.caption.16}{}}
\newlabel{author_qualitative_results}{{4b}{6}{Authors' results.\relax }{figure.caption.16}{}}
\newlabel{sub@author_qualitative_results}{{b}{6}{Authors' results.\relax }{figure.caption.16}{}}
\@writefile{lof}{\contentsline {figure}{\numberline {4}{\ignorespaces A qualitative comparison of bounding box results for three images between our implementation and that of the authors. Note that the red boxes indicate the result of the algorithm while the white boxes indicate ground truth as provided by the dataset.\relax }}{6}{figure.caption.16}}
\newlabel{fail_me}{{\caption@xref {fail_me}{ on input line 277}}{6}{}{figure.caption.19}{}}
\newlabel{sub@fail_me}{{}{6}{}{figure.caption.19}{}}
\newlabel{fail_author}{{\caption@xref {fail_author}{ on input line 284}}{6}{}{figure.caption.19}{}}
\newlabel{sub@fail_author}{{a}{6}{}{figure.caption.19}{}}
\@writefile{lof}{\contentsline {figure}{\numberline {5}{\ignorespaces Examples of images where the assumptions made in the foreground localization step are violated and both implementations fail. Red boxes indicate the result of the algorithm; white boxes indicate ground truth as provided by the dataset.\relax }}{6}{figure.caption.19}}
\newlabel{fail_us}{{5}{6}{Examples of images where the assumptions made in the foreground localization step are violated and both implementations fail. Red boxes indicate the result of the algorithm; white boxes indicate ground truth as provided by the dataset.\relax }{figure.caption.19}{}}
\@writefile{toc}{\contentsline {section}{\numberline {5}\hskip -1em.\nobreakspace  {}Acknowledgements}{6}{section.5}}
\@writefile{toc}{\contentsline {paragraph}{}{6}{section*.22}}
\bibcite{cho2015}{2}
\bibcite{Cho2008}{3}
\bibcite{1467360}{4}
\bibcite{Deselaers2010}{5}
\bibcite{pascal-voc-2007}{6}
\bibcite{pascal-voc-2012}{7}
\bibcite{6684535}{8}
\bibcite{lsvm-pami}{9}
\bibcite{voc-release5}{10}
\bibcite{1640737}{11}
\bibcite{jackson2008gestalt}{12}
\bibcite{5539868}{13}
\bibcite{NIPS2009_3680}{14}
\bibcite{Manen_2013_ICCV}{15}
\bibcite{1640859}{16}
\bibcite{rubinfigure}{17}
\bibcite{1640948}{18}
\bibcite{progressbar}{19}
\bibcite{1541280}{20}
\bibcite{6909586}{21}
\bibcite{4587633}{22}
\bibcite{vedaldi08vlfeat}{23}
\bibcite{Wang2014}{24}
